<?xml version="1.0"?>
<robot name="base Robot">
    <link name="base_link">
        <visual>
            <geometry>
                <cylinder radius="0.2" length="0.6"/>
            </geometry>
        </visual>
    </link>
</robot>